mc20_13TeV.364703.Pythia8EvtGen_A14NNPDF23LO_jetjet_JZ3WithSW.deriv.DAOD_PHYSVAL.e7142_s3681_r13144_r13146_p5057
mc20_13TeV.801471.Py8EG_A14NNPDF23LO_VHbb_flatmasspT.deriv.DAOD_PHYSVAL.e8441_e7400_s3681_r13144_r13146_p5057
mc20_13TeV.801472.Py8EG_A14NNPDF23LO_VHcc_flatmasspT.deriv.DAOD_PHYSVAL.e8441_e7400_s3681_r13144_r13146_p5057
